FSM CODE/simulation/qsim/lab5.msim.vcd
$comment
	File created using the following command:
		vcd file lab5.msim.vcd -direction
$end
$date
	Thu Nov 23 10:45:52 2023
$end
$version
	ModelSim Version 10.1d
$end
$timescale
	1ps
$end
$scope module lab5_vlg_vec_tst $end
$var reg 1 ! clk $end
$var reg 1 " data_in $end
$var reg 1 # reset $end
$var wire 1 $ current_state [3] $end
$var wire 1 % current_state [2] $end
$var wire 1 & current_state [1] $end
$var wire 1 ' current_state [0] $end
$var wire 1 ( student_id [3] $end
$var wire 1 ) student_id [2] $end
$var wire 1 * student_id [1] $end
$var wire 1 + student_id [0] $end
$var wire 1 , sampler $end
$scope module i1 $end
$var wire 1 - gnd $end
$var wire 1 . vcc $end
$var wire 1 / unknown $end
$var tri1 1 0 devclrn $end
$var tri1 1 1 devpor $end
$var tri1 1 2 devoe $end
$var wire 1 3 clk~combout $end
$var wire 1 4 clk~clkctrl_outclk $end
$var wire 1 5 ysfm.s5~feeder_combout $end
$var wire 1 6 reset~combout $end
$var wire 1 7 reset~clkctrl_outclk $end
$var wire 1 8 data_in~combout $end
$var wire 1 9 x_meta~feeder_combout $end
$var wire 1 : x_meta~regout $end
$var wire 1 ; x_curr~feeder_combout $end
$var wire 1 < x_curr~regout $end
$var wire 1 = x_last~regout $end
$var wire 1 > Selector0~0_combout $end
$var wire 1 ? ysfm.s5~regout $end
$var wire 1 @ ysfm.s4~regout $end
$var wire 1 A ysfm.s3~regout $end
$var wire 1 B ysfm.s2~feeder_combout $end
$var wire 1 C ysfm.s2~regout $end
$var wire 1 D ysfm.s1~feeder_combout $end
$var wire 1 E ysfm.s1~regout $end
$var wire 1 F ysfm.s0~0_combout $end
$var wire 1 G ysfm.s0~regout $end
$var wire 1 H ysfm.s8~0_combout $end
$var wire 1 I ysfm.s8~regout $end
$var wire 1 J ysfm.s7~feeder_combout $end
$var wire 1 K ysfm.s7~regout $end
$var wire 1 L ysfm.s6~feeder_combout $end
$var wire 1 M ysfm.s6~regout $end
$var wire 1 N WideOr1~combout $end
$var wire 1 O WideOr0~0_combout $end
$var wire 1 P WideOr0~combout $end
$var wire 1 Q WideOr4~0_combout $end
$var wire 1 R WideOr3~combout $end
$var wire 1 S WideOr2~0_combout $end
$upscope $end
$upscope $end
$enddefinitions $end
#0
$dumpvars
0!
1"
0#
0'
0&
0%
0$
1+
0*
1)
0(
x,
0-
1.
x/
10
11
12
03
04
05
06
07
18
19
0:
0;
0<
0=
0>
0?
0@
0A
0B
0C
0D
0E
1F
0G
1H
0I
0J
0K
0L
0M
1N
1O
1P
0Q
0R
0S
$end
#10000
1!
13
14
0,
1:
1;
#20000
0"
0!
08
03
04
1,
09
#30000
1!
13
14
0,
1<
0:
0;
#40000
1"
0!
18
03
04
1,
1>
19
#50000
1!
13
14
0,
1I
1G
1=
0<
1:
1J
0P
0N
0H
1;
1$
0)
0+
#60000
0"
0!
08
03
04
1,
0>
09
#70000
1!
13
14
0,
0=
1<
0:
0;
#80000
1"
0!
18
03
04
1,
1>
19
#90000
1!
13
14
0,
1K
0I
1=
0<
1:
1S
1R
1Q
1N
1L
0J
1;
0$
1%
1&
1'
1+
#100000
0"
0!
08
03
04
1,
0>
09
#110000
1!
13
14
0,
0=
1<
0:
0;
#120000
1"
0!
18
03
04
1,
1>
19
#130000
1!
13
14
0,
1M
0K
1=
0<
1:
15
0Q
0L
1;
0'
#140000
0"
0!
08
03
04
1,
0>
09
#150000
1!
13
14
0,
0=
1<
0:
0;
#159000
0!
03
04
1,
#160000
1"
18
0,
1>
19
#170000
1!
13
14
1,
0M
1?
1=
0<
1:
0R
0N
05
1Q
1P
0O
1;
0&
0+
1'
1)
1*
#180000
0"
0!
08
03
04
0,
0>
09
#190000
1!
13
14
1,
0=
1<
0:
0;
#200000
1"
0!
18
03
04
0,
1>
19
#210000
1!
13
14
1,
1@
0?
1=
0<
1:
0Q
0P
1O
1;
0'
0)
0*
#220000
0"
0!
08
03
04
0,
0>
09
#230000
1!
13
14
1,
0=
1<
0:
0;
#240000
1"
0!
18
03
04
0,
1>
19
#250000
1!
13
14
1,
1A
0@
1=
0<
1:
1R
1Q
1B
0S
1;
1(
1&
1'
0%
#260000
0"
0!
08
03
04
0,
0>
09
#270000
1!
13
14
1,
0=
1<
0:
0;
#280000
1"
0!
18
03
04
0,
1>
19
#290000
1!
13
14
1,
1C
0A
1=
0<
1:
1N
1D
0Q
0B
1;
0(
1+
0'
#300000
0"
0!
08
03
04
0,
0>
09
#310000
1!
13
14
1,
0=
1<
0:
0;
#320000
1"
0!
18
03
04
0,
1>
19
#330000
1!
13
14
1,
1E
0C
1=
0<
1:
1Q
1P
0O
0F
0R
0N
0D
1;
1'
1)
0&
0+
1*
#339000
0!
03
04
0,
#340000
0"
08
1,
0>
09
#350000
1!
13
14
0,
0=
1<
0:
0;
#360000
1"
0!
18
03
04
1,
1>
19
